<?xml version="1.0" encoding="UTF-8"?>
<!DOCTYPE svg PUBLIC "-//W3C//DTD SVG 1.1//EN" "http://www.w3.org/Graphics/SVG/1.1/DTD/svg11.dtd">
<!-- Creator: CorelDRAW X7 -->
<svg xmlns="http://www.w3.org/2000/svg" xml:space="preserve" width="25.4mm" height="42.3332mm" version="1.1" style="shape-rendering:geometricPrecision; text-rendering:geometricPrecision; image-rendering:optimizeQuality; fill-rule:evenodd; clip-rule:evenodd"
viewBox="0 0 2540 4233"
 xmlns:xlink="http://www.w3.org/1999/xlink">
 <defs>
  <font id="FontID0" horiz-adv-x="667" font-variant="normal" style="fill-rule:nonzero" font-style="normal" font-weight="400">
	<font-face 
		font-family="Arial">
	</font-face>
   <missing-glyph><path d="M0 0z"/></missing-glyph>
   <glyph unicode="_" horiz-adv-x="556"><path d="M-15 -198.998l0 63.0001 582.001 0 0 -63.0001 -582.001 0z"/></glyph>
   <glyph unicode="7" horiz-adv-x="556"><path d="M47.0021 623.001l0 84.0014 462.998 0 0 -68.0011c-45.5014,-48.5028 -90.8337,-113 -135.5,-193.498 -44.8357,-80.5034 -79.3355,-163.337 -103.833,-248.501 -17.501,-59.8373 -28.8354,-125.666 -33.6649,-197.002l-90.0042 0c1.00411,56.3338 12.0002,124.499 33.1683,204.331 21.1682,80.0013 51.3351,157.001 90.8337,231.169 39.4986,74.1677 81.502,136.668 125.999,187.501l-349.998 0z"/></glyph>
   <glyph unicode="4" horiz-adv-x="556"><path d="M323.003 0l0 171 -311.003 0 0 81.0002 327.001 463.997 72.0001 0 0 -463.997 96.9982 0 0 -81.0002 -96.9982 0 0 -171 -87.9982 0zm0 252l0 322.164 -224.504 -322.164 224.504 0z"/></glyph>
  </font>
  <style type="text/css">
   <![CDATA[
    @font-face { font-family:"Arial";src:url("#FontID0") format(svg)}
    .fil0 {fill:#ED3237}
    .fnt1 {font-weight:normal;font-size:1693.33px;font-family:'Arial'}
    .fnt0 {font-weight:normal;font-size:1832.47px;font-family:'Arial'}
   ]]>
  </style>
 </defs>
 <g id="Capa_x0020_1">
  <metadata id="CorelCorpID_0Corel-Layer"/>
  <text x="861" y="1605"  class="fil0 fnt0">7</text>
  <text x="783" y="3612"  class="fil0 fnt1">4</text>
  <text x="357" y="1698"  class="fil0 fnt1">__</text>
 </g>
</svg>
